Plotly Page
…
select the columns that we will use

data(instacart)

instacart <- 
  instacart %>%
  janitor::clean_names() %>% 
  select(
    add_to_cart_order, reordered, user_id, order_dow, order_hour_of_day, days_since_prior_order, product_name, aisle, department)
instacart

## # A tibble: 1,384,617 × 9
##    add_to_cart_o…¹ reord…² user_id order…³ order…⁴ days_…⁵ produ…⁶ aisle depar…⁷
##              <int>   <int>   <int>   <int>   <int>   <int> <chr>   <chr> <chr>  
##  1               1       1  112108       4      10       9 Bulgar… yogu… dairy …
##  2               2       1  112108       4      10       9 Organi… othe… dairy …
##  3               3       0  112108       4      10       9 Organi… fres… produce
##  4               4       0  112108       4      10       9 Cucumb… fres… produce
##  5               5       1  112108       4      10       9 Lightl… cann… canned…
##  6               6       0  112108       4      10       9 Bag of… fres… produce
##  7               7       0  112108       4      10       9 Organi… fres… produce
##  8               8       1  112108       4      10       9 Organi… pack… dairy …
##  9               1       0   79431       6      18      30 Grated… spec… dairy …
## 10               2       1   79431       6      18      30 Spring… wate… bevera…
## # … with 1,384,607 more rows, and abbreviated variable names
## #   ¹​add_to_cart_order, ²​reordered, ³​order_dow, ⁴​order_hour_of_day,
## #   ⁵​days_since_prior_order, ⁶​product_name, ⁷​department
…
